#
# There is insufficient memory for the Java Runtime Environment to continue.
# Native memory allocation (malloc) failed to allocate 1305152 bytes for Chunk::new
# Possible reasons:
#   The system is out of physical RAM or swap space
#   The process is running with CompressedOops enabled, and the Java Heap may be blocking the growth of the native heap
# Possible solutions:
#   Reduce memory load on the system
#   Increase physical memory or swap space
#   Check if swap backing store is full
#   Decrease Java heap size (-Xmx/-Xms)
#   Decrease number of Java threads
#   Decrease Java thread stack sizes (-Xss)
#   Set larger code cache with -XX:ReservedCodeCacheSize=
#   JVM is running with Unscaled Compressed Oops mode in which the Java heap is
#     placed in the first 4GB address space. The Java Heap base address is the
#     maximum limit for the native heap growth. Please use -XX:HeapBaseMinAddress
#     to set the Java Heap base and to place the Java Heap above 4GB virtual address.
# This output file may be truncated or incomplete.
#
#  Out of Memory Error (allocation.cpp:389), pid=83672, tid=0x0000000000013b54
#
# JRE version: OpenJDK Runtime Environment (8.0_212-b04) (build 1.8.0_212-release-1586-b04)
# Java VM: OpenJDK 64-Bit Server VM (25.212-b04 mixed mode windows-amd64 compressed oops)
# Failed to write core dump. Minidumps are not enabled by default on client versions of Windows
#

---------------  T H R E A D  ---------------

Current thread (0x0000000018b49000):  JavaThread "C2 CompilerThread0" daemon [_thread_in_native, id=80724, stack(0x0000000019430000,0x0000000019530000)]

Stack: [0x0000000019430000,0x0000000019530000]
[error occurred during error reporting (printing stack bounds), id 0xc0000005]

Native frames: (J=compiled Java code, j=interpreted, Vv=VM code, C=native code)


Current CompileTask:
C2:  29239 12406       4       com.android.tools.r8.dex.m::a (576 bytes)


---------------  P R O C E S S  ---------------

Java Threads: ( => current thread )
  0x0000000020687800 JavaThread "WorkerExecutor Queue Thread 6" [_thread_blocked, id=84156, stack(0x0000000027a50000,0x0000000027b50000)]
  0x0000000020683800 JavaThread "WorkerExecutor Queue Thread 5" [_thread_in_native, id=82264, stack(0x0000000027150000,0x0000000027250000)]
  0x000000002068a800 JavaThread "WorkerExecutor Queue Thread 4" [_thread_blocked, id=82232, stack(0x0000000027050000,0x0000000027150000)]
  0x0000000020686800 JavaThread "WorkerExecutor Queue Thread 3" [_thread_blocked, id=80048, stack(0x0000000026f50000,0x0000000027050000)]
  0x0000000020688000 JavaThread "WorkerExecutor Queue Thread 2" [_thread_blocked, id=82364, stack(0x0000000026e50000,0x0000000026f50000)]
  0x0000000020685800 JavaThread "WorkerExecutor Queue" [_thread_blocked, id=84196, stack(0x0000000026370000,0x0000000026470000)]
  0x0000000020685000 JavaThread "ForkJoinPool.commonPool-worker-7" daemon [_thread_blocked, id=77852, stack(0x0000000026d50000,0x0000000026e50000)]
  0x0000000020689000 JavaThread "ForkJoinPool.commonPool-worker-6" daemon [_thread_blocked, id=81384, stack(0x0000000026c50000,0x0000000026d50000)]
  0x000000002067c000 JavaThread "ForkJoinPool.commonPool-worker-5" daemon [_thread_blocked, id=83508, stack(0x0000000026b50000,0x0000000026c50000)]
  0x0000000020682800 JavaThread "ForkJoinPool.commonPool-worker-4" daemon [_thread_blocked, id=84496, stack(0x0000000026a50000,0x0000000026b50000)]
  0x000000002067f800 JavaThread "ForkJoinPool.commonPool-worker-1" daemon [_thread_blocked, id=81584, stack(0x00000000264e0000,0x00000000265e0000)]
  0x000000002067c800 JavaThread "Cache worker for Java compile cache (C:\Users\damia\AndroidStudioProjects\ztv-mpeg-7-wersja-2\amdpdzsio\.gradle\5.6.4\javaCompile)" [_thread_blocked, id=83836, stack(0x0000000025c70000,0x0000000025d70000)]
  0x0000000020681000 JavaThread "Cache worker for Java compile cache (C:\Users\damia\.gradle\caches\5.6.4\javaCompile)" [_thread_blocked, id=78832, stack(0x0000000025b70000,0x0000000025c70000)]
  0x000000002067f000 JavaThread "Cache worker for execution history cache (C:\Users\damia\AndroidStudioProjects\ztv-mpeg-7-wersja-2\amdpdzsio\.gradle\5.6.4\executionHistory)" [_thread_blocked, id=84028, stack(0x0000000025a70000,0x0000000025b70000)]
  0x0000000020680800 JavaThread "Execution worker for ':' Thread 7" [_thread_blocked, id=82252, stack(0x0000000025770000,0x0000000025870000)]
  0x000000001bb76800 JavaThread "Execution worker for ':' Thread 6" [_thread_blocked, id=81736, stack(0x0000000025670000,0x0000000025770000)]
  0x000000001bb76000 JavaThread "Execution worker for ':' Thread 5" [_thread_blocked, id=82056, stack(0x0000000025570000,0x0000000025670000)]
  0x000000001bb74800 JavaThread "Execution worker for ':' Thread 4" [_thread_blocked, id=79680, stack(0x0000000025470000,0x0000000025570000)]
  0x000000001bb73800 JavaThread "Execution worker for ':' Thread 3" [_thread_blocked, id=81336, stack(0x0000000025370000,0x0000000025470000)]
  0x000000001bb78000 JavaThread "Execution worker for ':' Thread 2" [_thread_blocked, id=14928, stack(0x0000000025270000,0x0000000025370000)]
  0x000000001bb79000 JavaThread "Execution worker for ':'" [_thread_blocked, id=84756, stack(0x0000000025170000,0x0000000025270000)]
  0x000000001bb79800 JavaThread "Cache worker for file content cache (C:\Users\damia\AndroidStudioProjects\ztv-mpeg-7-wersja-2\amdpdzsio\.gradle\5.6.4\fileContent)" [_thread_blocked, id=81308, stack(0x0000000024990000,0x0000000024a90000)]
  0x000000001bb77800 JavaThread "Cache worker for file content cache (C:\Users\damia\.gradle\caches\5.6.4\fileContent)" [_thread_blocked, id=71052, stack(0x00000000245e0000,0x00000000246e0000)]
  0x000000001bb75000 JavaThread "Memory manager" [_thread_blocked, id=82784, stack(0x00000000244e0000,0x00000000245e0000)]
  0x000000001bb73000 JavaThread "Cache worker for Build Output Cleanup Cache (C:\Users\damia\AndroidStudioProjects\ztv-mpeg-7-wersja-2\amdpdzsio\.gradle\buildOutputCleanup)" [_thread_blocked, id=57052, stack(0x0000000023de0000,0x0000000023ee0000)]
  0x000000001bb6a800 JavaThread "Build operations Thread 8" [_thread_blocked, id=81232, stack(0x0000000023ae0000,0x0000000023be0000)]
  0x000000001bb6b800 JavaThread "Build operations Thread 7" [_thread_blocked, id=84096, stack(0x00000000239e0000,0x0000000023ae0000)]
  0x000000001bb6e800 JavaThread "Build operations Thread 6" [_thread_blocked, id=79868, stack(0x00000000238e0000,0x00000000239e0000)]
  0x000000001bb71800 JavaThread "Build operations Thread 5" [_thread_blocked, id=80212, stack(0x00000000237e0000,0x00000000238e0000)]
  0x000000001bb70800 JavaThread "Build operations Thread 4" [_thread_blocked, id=83760, stack(0x00000000236e0000,0x00000000237e0000)]
  0x000000001bb6d800 JavaThread "Build operations Thread 3" [_thread_blocked, id=80616, stack(0x00000000235e0000,0x00000000236e0000)]
  0x000000001bb6f000 JavaThread "Build operations Thread 2" [_thread_blocked, id=83036, stack(0x00000000234e0000,0x00000000235e0000)]
  0x000000001bb6d000 JavaThread "Build operations" [_thread_blocked, id=81268, stack(0x00000000233e0000,0x00000000234e0000)]
  0x000000001bb70000 JavaThread "Cache worker for execution history cache (C:\Users\damia\.gradle\caches\5.6.4\executionHistory)" [_thread_blocked, id=81424, stack(0x0000000021ca0000,0x0000000021da0000)]
  0x000000001a46d800 JavaThread "Cache worker for cache directory md-rule (C:\Users\damia\.gradle\caches\5.6.4\md-rule)" [_thread_blocked, id=77380, stack(0x00000000200e0000,0x00000000201e0000)]
  0x000000001a46c000 JavaThread "Cache worker for cache directory md-supplier (C:\Users\damia\.gradle\caches\5.6.4\md-supplier)" [_thread_blocked, id=80120, stack(0x000000001fe10000,0x000000001ff10000)]
  0x000000001a469800 JavaThread "Cache worker for file hash cache (C:\Users\damia\AndroidStudioProjects\ztv-mpeg-7-wersja-2\amdpdzsio\.gradle\5.6.4\fileHashes)" [_thread_blocked, id=75268, stack(0x000000001ffe0000,0x00000000200e0000)]
  0x000000001a469000 JavaThread "Cache worker for journal cache (C:\Users\damia\.gradle\caches\journal-1)" [_thread_blocked, id=84700, stack(0x000000001d970000,0x000000001da70000)]
  0x000000001a46e000 JavaThread "File lock request listener" [_thread_in_native, id=82136, stack(0x000000001d870000,0x000000001d970000)]
  0x000000001a46a800 JavaThread "Cache worker for file hash cache (C:\Users\damia\.gradle\caches\5.6.4\fileHashes)" [_thread_blocked, id=80692, stack(0x000000001d770000,0x000000001d870000)]
  0x000000001b6d2000 JavaThread "Thread-9" [_thread_blocked, id=76036, stack(0x000000001d470000,0x000000001d570000)]
  0x000000001b6da000 JavaThread "Stdin handler" [_thread_blocked, id=83112, stack(0x000000001d370000,0x000000001d470000)]
  0x000000001b6d7800 JavaThread "Asynchronous log dispatcher for DefaultDaemonConnection: socket connection from /127.0.0.1:55344 to /127.0.0.1:55345" [_thread_blocked, id=82028, stack(0x000000001d170000,0x000000001d270000)]
  0x000000001b6f9000 JavaThread "Daemon worker" [_thread_blocked, id=84820, stack(0x000000001d070000,0x000000001d170000)]
  0x000000001b6d9000 JavaThread "Cancel handler" [_thread_blocked, id=75328, stack(0x000000001cf70000,0x000000001d070000)]
  0x000000001a583800 JavaThread "Handler for socket connection from /127.0.0.1:55344 to /127.0.0.1:55345" [_thread_in_native, id=83284, stack(0x000000001cc70000,0x000000001cd70000)]
  0x000000001b6a5000 JavaThread "Daemon" [_thread_blocked, id=81472, stack(0x000000001cb70000,0x000000001cc70000)]
  0x000000001b683800 JavaThread "Daemon periodic checks" [_thread_blocked, id=82928, stack(0x000000001ca70000,0x000000001cb70000)]
  0x000000001b631800 JavaThread "Incoming local TCP Connector on port 55344" [_thread_in_native, id=82412, stack(0x000000001c810000,0x000000001c910000)]
  0x000000001b5e5800 JavaThread "Daemon health stats" [_thread_blocked, id=83692, stack(0x000000001c1d0000,0x000000001c2d0000)]
  0x0000000018bba000 JavaThread "Service Thread" daemon [_thread_blocked, id=83100, stack(0x0000000019830000,0x0000000019930000)]
  0x0000000018b60000 JavaThread "C1 CompilerThread3" daemon [_thread_blocked, id=83516, stack(0x0000000019730000,0x0000000019830000)]
  0x0000000018b54000 JavaThread "C2 CompilerThread2" daemon [_thread_blocked, id=81832, stack(0x0000000019630000,0x0000000019730000)]
  0x0000000018b4f800 JavaThread "C2 CompilerThread1" daemon [_thread_blocked, id=80220, stack(0x0000000019530000,0x0000000019630000)]
=>0x0000000018b49000 JavaThread "C2 CompilerThread0" daemon [_thread_in_native, id=80724, stack(0x0000000019430000,0x0000000019530000)]
  0x0000000018b47000 JavaThread "Attach Listener" daemon [_thread_blocked, id=79652, stack(0x0000000019330000,0x0000000019430000)]
  0x0000000018b44000 JavaThread "Signal Dispatcher" daemon [_thread_blocked, id=79892, stack(0x0000000019230000,0x0000000019330000)]
  0x0000000016d62800 JavaThread "Finalizer" daemon [_thread_blocked, id=83460, stack(0x0000000019020000,0x0000000019120000)]
  0x0000000002ed6000 JavaThread "Reference Handler" daemon [_thread_blocked, id=81280, stack(0x0000000018f20000,0x0000000019020000)]
  0x0000000002f9e800 JavaThread "main" [_thread_blocked, id=82072, stack(0x0000000002c80000,0x0000000002d80000)]

Other Threads:
  0x0000000016d58000 VMThread [stack: 0x0000000018a20000,0x0000000018b20000] [id=83124]
  0x0000000018bba800 WatcherThread [stack: 0x0000000019930000,0x0000000019a30000] [id=82544]

VM state:not at safepoint (normal execution)

VM Mutex/Monitor currently owned by a thread: None

heap address: 0x00000000a0000000, size: 1536 MB, Compressed Oops mode: 32-bit
Narrow klass base: 0x0000000000000000, Narrow klass shift: 3
Compressed class space size: 1073741824 Address: 0x0000000100000000

Heap:
 PSYoungGen      total 217088K, used 63676K [0x00000000e0000000, 0x00000000f4680000, 0x0000000100000000)
  eden space 174592K, 12% used [0x00000000e0000000,0x00000000e14b0668,0x00000000eaa80000)
  from space 42496K, 99% used [0x00000000eaa80000,0x00000000ed3fe9a0,0x00000000ed400000)
  to   space 62976K, 0% used [0x00000000f0900000,0x00000000f0900000,0x00000000f4680000)
 ParOldGen       total 159744K, used 106796K [0x00000000a0000000, 0x00000000a9c00000, 0x00000000e0000000)
  object space 159744K, 66% used [0x00000000a0000000,0x00000000a684b2a0,0x00000000a9c00000)
 Metaspace       used 76740K, capacity 80413K, committed 80680K, reserved 1118208K
  class space    used 10442K, capacity 11186K, committed 11304K, reserved 1048576K

Card table byte_map: [0x0000000012360000,0x0000000012670000] byte_map_base: 0x0000000011e60000

Marking Bits: (ParMarkBitMap*) 0x000000005f9a9f30
 Begin Bits: [0x0000000013070000, 0x0000000014870000)
 End Bits:   [0x0000000014870000, 0x0000000016070000)

Polling page: 0x0000000001070000

CodeCache: size=245760Kb used=35352Kb max_used=35359Kb free=210407Kb
 bounds [0x0000000002fa0000, 0x0000000005260000, 0x0000000011fa0000]
 total_blobs=11632 nmethods=10794 adapters=749
 compilation: enabled

Compilation events (10 events):
Event: 29.155 Thread 0x0000000018b54000 nmethod 12554 0x0000000005251690 code [0x00000000052517c0, 0x0000000005251878]
Event: 29.155 Thread 0x0000000018b54000 12556       4       java.util.IdentityHashMap$KeyIterator::next (13 bytes)
Event: 29.156 Thread 0x0000000018b4f800 nmethod 12555 0x0000000005251350 code [0x0000000005251480, 0x0000000005251578]
Event: 29.158 Thread 0x0000000018b54000 nmethod 12556 0x000000000520cb50 code [0x000000000520cca0, 0x000000000520cdb8]
Event: 29.211 Thread 0x0000000018b4f800 12557       4       java.lang.Thread::isInterrupted (6 bytes)
Event: 29.211 Thread 0x0000000018b60000 12558       3       java.util.concurrent.ForkJoinPool$WorkQueue::poll (107 bytes)
Event: 29.213 Thread 0x0000000018b60000 nmethod 12558 0x000000000520c410 code [0x000000000520c5a0, 0x000000000520ca50]
Event: 29.213 Thread 0x0000000018b60000 12559       3       java.util.concurrent.ForkJoinPool$WorkQueue::cancelAll (53 bytes)
Event: 29.213 Thread 0x0000000018b4f800 nmethod 12557 0x00000000043ebcd0 code [0x00000000043ebe20, 0x00000000043ebec8]
Event: 29.214 Thread 0x0000000018b60000 nmethod 12559 0x000000000524cb90 code [0x000000000524cd80, 0x000000000524d898]

GC Heap History (10 events):
Event: 17.449 GC heap before
{Heap before GC invocations=16 (full 3):
 PSYoungGen      total 153600K, used 136192K [0x00000000e0000000, 0x00000000eb780000, 0x0000000100000000)
  eden space 136192K, 100% used [0x00000000e0000000,0x00000000e8500000,0x00000000e8500000)
  from space 17408K, 0% used [0x00000000e9900000,0x00000000e9900000,0x00000000eaa00000)
  to   space 20480K, 0% used [0x00000000e8500000,0x00000000e8500000,0x00000000e9900000)
 ParOldGen       total 159744K, used 33949K [0x00000000a0000000, 0x00000000a9c00000, 0x00000000e0000000)
  object space 159744K, 21% used [0x00000000a0000000,0x00000000a2127728,0x00000000a9c00000)
 Metaspace       used 59770K, capacity 62169K, committed 62376K, reserved 1103872K
  class space    used 8259K, capacity 8758K, committed 8872K, reserved 1048576K
Event: 17.465 GC heap after
Heap after GC invocations=16 (full 3):
 PSYoungGen      total 156672K, used 11103K [0x00000000e0000000, 0x00000000ebe00000, 0x0000000100000000)
  eden space 136192K, 0% used [0x00000000e0000000,0x00000000e0000000,0x00000000e8500000)
  from space 20480K, 54% used [0x00000000e8500000,0x00000000e8fd7f48,0x00000000e9900000)
  to   space 19968K, 0% used [0x00000000eaa80000,0x00000000eaa80000,0x00000000ebe00000)
 ParOldGen       total 159744K, used 33957K [0x00000000a0000000, 0x00000000a9c00000, 0x00000000e0000000)
  object space 159744K, 21% used [0x00000000a0000000,0x00000000a2129728,0x00000000a9c00000)
 Metaspace       used 59770K, capacity 62169K, committed 62376K, reserved 1103872K
  class space    used 8259K, capacity 8758K, committed 8872K, reserved 1048576K
}
Event: 21.881 GC heap before
{Heap before GC invocations=17 (full 3):
 PSYoungGen      total 156672K, used 147295K [0x00000000e0000000, 0x00000000ebe00000, 0x0000000100000000)
  eden space 136192K, 100% used [0x00000000e0000000,0x00000000e8500000,0x00000000e8500000)
  from space 20480K, 54% used [0x00000000e8500000,0x00000000e8fd7f48,0x00000000e9900000)
  to   space 19968K, 0% used [0x00000000eaa80000,0x00000000eaa80000,0x00000000ebe00000)
 ParOldGen       total 159744K, used 33957K [0x00000000a0000000, 0x00000000a9c00000, 0x00000000e0000000)
  object space 159744K, 21% used [0x00000000a0000000,0x00000000a2129728,0x00000000a9c00000)
 Metaspace       used 66647K, capacity 69225K, committed 69544K, reserved 1110016K
  class space    used 9007K, capacity 9562K, committed 9640K, reserved 1048576K
Event: 21.918 GC heap after
Heap after GC invocations=17 (full 3):
 PSYoungGen      total 172544K, used 18237K [0x00000000e0000000, 0x00000000ec100000, 0x0000000100000000)
  eden space 152576K, 0% used [0x00000000e0000000,0x00000000e0000000,0x00000000e9500000)
  from space 19968K, 91% used [0x00000000eaa80000,0x00000000ebc4f6e8,0x00000000ebe00000)
  to   space 22016K, 0% used [0x00000000e9500000,0x00000000e9500000,0x00000000eaa80000)
 ParOldGen       total 159744K, used 33965K [0x00000000a0000000, 0x00000000a9c00000, 0x00000000e0000000)
  object space 159744K, 21% used [0x00000000a0000000,0x00000000a212b728,0x00000000a9c00000)
 Metaspace       used 66647K, capacity 69225K, committed 69544K, reserved 1110016K
  class space    used 9007K, capacity 9562K, committed 9640K, reserved 1048576K
}
Event: 22.578 GC heap before
{Heap before GC invocations=18 (full 3):
 PSYoungGen      total 172544K, used 170813K [0x00000000e0000000, 0x00000000ec100000, 0x0000000100000000)
  eden space 152576K, 100% used [0x00000000e0000000,0x00000000e9500000,0x00000000e9500000)
  from space 19968K, 91% used [0x00000000eaa80000,0x00000000ebc4f6e8,0x00000000ebe00000)
  to   space 22016K, 0% used [0x00000000e9500000,0x00000000e9500000,0x00000000eaa80000)
 ParOldGen       total 159744K, used 33973K [0x00000000a0000000, 0x00000000a9c00000, 0x00000000e0000000)
  object space 159744K, 21% used [0x00000000a0000000,0x00000000a212d738,0x00000000a9c00000)
 Metaspace       used 67454K, capacity 70125K, committed 70440K, reserved 1110016K
  class space    used 9083K, capacity 9646K, committed 9768K, reserved 1048576K
Event: 22.630 GC heap after
Heap after GC invocations=18 (full 3):
 PSYoungGen      total 174592K, used 22001K [0x00000000e0000000, 0x00000000ef000000, 0x0000000100000000)
  eden space 152576K, 0% used [0x00000000e0000000,0x00000000e0000000,0x00000000e9500000)
  from space 22016K, 99% used [0x00000000e9500000,0x00000000eaa7c6a8,0x00000000eaa80000)
  to   space 28672K, 0% used [0x00000000ed400000,0x00000000ed400000,0x00000000ef000000)
 ParOldGen       total 159744K, used 44837K [0x00000000a0000000, 0x00000000a9c00000, 0x00000000e0000000)
  object space 159744K, 28% used [0x00000000a0000000,0x00000000a2bc96a8,0x00000000a9c00000)
 Metaspace       used 67454K, capacity 70125K, committed 70440K, reserved 1110016K
  class space    used 9083K, capacity 9646K, committed 9768K, reserved 1048576K
}
Event: 25.127 GC heap before
{Heap before GC invocations=19 (full 3):
 PSYoungGen      total 174592K, used 174577K [0x00000000e0000000, 0x00000000ef000000, 0x0000000100000000)
  eden space 152576K, 100% used [0x00000000e0000000,0x00000000e9500000,0x00000000e9500000)
  from space 22016K, 99% used [0x00000000e9500000,0x00000000eaa7c6a8,0x00000000eaa80000)
  to   space 28672K, 0% used [0x00000000ed400000,0x00000000ed400000,0x00000000ef000000)
 ParOldGen       total 159744K, used 44840K [0x00000000a0000000, 0x00000000a9c00000, 0x00000000e0000000)
  object space 159744K, 28% used [0x00000000a0000000,0x00000000a2bca330,0x00000000a9c00000)
 Metaspace       used 75669K, capacity 79123K, committed 79272K, reserved 1118208K
  class space    used 10330K, capacity 11057K, committed 11176K, reserved 1048576K
Event: 25.263 GC heap after
Heap after GC invocations=19 (full 3):
 PSYoungGen      total 203264K, used 28648K [0x00000000e0000000, 0x00000000f1000000, 0x0000000100000000)
  eden space 174592K, 0% used [0x00000000e0000000,0x00000000e0000000,0x00000000eaa80000)
  from space 28672K, 99% used [0x00000000ed400000,0x00000000eeffa258,0x00000000ef000000)
  to   space 42496K, 0% used [0x00000000eaa80000,0x00000000eaa80000,0x00000000ed400000)
 ParOldGen       total 159744K, used 70331K [0x00000000a0000000, 0x00000000a9c00000, 0x00000000e0000000)
  object space 159744K, 44% used [0x00000000a0000000,0x00000000a44aef90,0x00000000a9c00000)
 Metaspace       used 75669K, capacity 79123K, committed 79272K, reserved 1118208K
  class space    used 10330K, capacity 11057K, committed 11176K, reserved 1048576K
}
Event: 28.443 GC heap before
{Heap before GC invocations=20 (full 3):
 PSYoungGen      total 203264K, used 203240K [0x00000000e0000000, 0x00000000f1000000, 0x0000000100000000)
  eden space 174592K, 100% used [0x00000000e0000000,0x00000000eaa80000,0x00000000eaa80000)
  from space 28672K, 99% used [0x00000000ed400000,0x00000000eeffa258,0x00000000ef000000)
  to   space 42496K, 0% used [0x00000000eaa80000,0x00000000eaa80000,0x00000000ed400000)
 ParOldGen       total 159744K, used 70331K [0x00000000a0000000, 0x00000000a9c00000, 0x00000000e0000000)
  object space 159744K, 44% used [0x00000000a0000000,0x00000000a44aef90,0x00000000a9c00000)
 Metaspace       used 76632K, capacity 80279K, committed 80424K, reserved 1118208K
  class space    used 10440K, capacity 11185K, committed 11304K, reserved 1048576K
Event: 28.618 GC heap after
Heap after GC invocations=20 (full 3):
 PSYoungGen      total 217088K, used 42490K [0x00000000e0000000, 0x00000000f4680000, 0x0000000100000000)
  eden space 174592K, 0% used [0x00000000e0000000,0x00000000e0000000,0x00000000eaa80000)
  from space 42496K, 99% used [0x00000000eaa80000,0x00000000ed3fe9a0,0x00000000ed400000)
  to   space 62976K, 0% used [0x00000000f0900000,0x00000000f0900000,0x00000000f4680000)
 ParOldGen       total 159744K, used 106796K [0x00000000a0000000, 0x00000000a9c00000, 0x00000000e0000000)
  object space 159744K, 66% used [0x00000000a0000000,0x00000000a684b2a0,0x00000000a9c00000)
 Metaspace       used 76632K, capacity 80279K, committed 80424K, reserved 1118208K
  class space    used 10440K, capacity 11185K, committed 11304K, reserved 1048576K
}

Deoptimization events (10 events):
Event: 28.149 Thread 0x000000001ae15800 Uncommon trap: reason=class_check action=maybe_recompile pc=0x00000000050e0ab4 method=java.util.stream.AbstractPipeline.wrapAndCopyInto(Ljava/util/stream/Sink;Ljava/util/Spliterator;)Ljava/util/stream/Sink; @ 6
Event: 28.150 Thread 0x000000001ae15800 Uncommon trap: reason=class_check action=maybe_recompile pc=0x00000000050e0ab4 method=java.util.stream.AbstractPipeline.wrapAndCopyInto(Ljava/util/stream/Sink;Ljava/util/Spliterator;)Ljava/util/stream/Sink; @ 6
Event: 28.310 Thread 0x000000001ae15800 Uncommon trap: reason=unstable_if action=reinterpret pc=0x0000000005004a54 method=java.util.TimSort.mergeLo(IIII)V @ 105
Event: 28.310 Thread 0x000000001ae15800 Uncommon trap: reason=unstable_if action=reinterpret pc=0x000000000505d244 method=java.util.TimSort.mergeHi(IIII)V @ 554
Event: 28.317 Thread 0x000000001ae15800 Uncommon trap: reason=unstable_if action=reinterpret pc=0x0000000005072954 method=java.util.TimSort.mergeCollapse()V @ 61
Event: 28.953 Thread 0x000000001ae15800 Uncommon trap: reason=class_check action=maybe_recompile pc=0x00000000051d2d84 method=com.android.tools.r8.v.a.a.a.h.M.a(Ljava/lang/Object;)I @ 35
Event: 28.953 Thread 0x000000001ae15800 Uncommon trap: reason=class_check action=maybe_recompile pc=0x00000000051d2d84 method=com.android.tools.r8.v.a.a.a.h.M.a(Ljava/lang/Object;)I @ 35
Event: 28.953 Thread 0x000000001ae15800 Uncommon trap: reason=class_check action=maybe_recompile pc=0x00000000051d2d84 method=com.android.tools.r8.v.a.a.a.h.M.a(Ljava/lang/Object;)I @ 35
Event: 28.953 Thread 0x000000001ae15800 Uncommon trap: reason=class_check action=maybe_recompile pc=0x00000000051d2d84 method=com.android.tools.r8.v.a.a.a.h.M.a(Ljava/lang/Object;)I @ 35
Event: 29.221 Thread 0x0000000020683800 Uncommon trap: reason=predicate action=maybe_recompile pc=0x000000000504d150 method=java.util.TimSort.reverseRange([Ljava/lang/Object;II)V @ 8

Classes redefined (0 events):
No events

Internal exceptions (10 events):
Event: 24.330 Thread 0x0000000020685800 Exception <a 'sun/nio/fs/WindowsException'> (0x00000000e49e0368) thrown at [D:\src\AOSP-openjdk-cygwin\jdk8u\hotspot\src\share\vm\prims\jni.cpp, line 710]
Event: 24.590 Thread 0x000000001bb78000 Exception <a 'java/lang/NoSuchMethodError': <clinit>> (0x00000000e5dcf580) thrown at [D:\src\AOSP-openjdk-cygwin\jdk8u\hotspot\src\share\vm\prims\jni.cpp, line 1614]
Event: 24.592 Thread 0x000000001bb78000 Exception <a 'java/lang/NoSuchMethodError': <clinit>> (0x00000000e5de3d00) thrown at [D:\src\AOSP-openjdk-cygwin\jdk8u\hotspot\src\share\vm\prims\jni.cpp, line 1614]
Event: 24.828 Thread 0x0000000020683800 Exception <a 'sun/nio/fs/WindowsException'> (0x00000000e6c2fc40) thrown at [D:\src\AOSP-openjdk-cygwin\jdk8u\hotspot\src\share\vm\prims\jni.cpp, line 710]
Event: 25.321 Thread 0x000000002067e000 Implicit null exception at 0x00000000038b0bef to 0x00000000038b0ce1
Event: 25.321 Thread 0x000000001ae14800 Implicit null exception at 0x00000000038b0bef to 0x00000000038b0ce1
Event: 25.321 Thread 0x000000001ae16000 Implicit null exception at 0x00000000038b0bef to 0x00000000038b0ce1
Event: 25.321 Thread 0x0000000020684000 Implicit null exception at 0x00000000038b0bef to 0x00000000038b0ce1
Event: 27.909 Thread 0x000000001ae15800 Implicit null exception at 0x0000000004c4668f to 0x0000000004c467f1
Event: 29.178 Thread 0x000000001ae15800 Exception <a 'sun/nio/fs/WindowsException'> (0x00000000e1352a20) thrown at [D:\src\AOSP-openjdk-cygwin\jdk8u\hotspot\src\share\vm\prims\jni.cpp, line 710]

Events (10 events):
Event: 29.213 Thread 0x000000002067e000 Thread exited: 0x000000002067e000
Event: 29.213 Thread 0x0000000020689800 Thread exited: 0x0000000020689800
Event: 29.213 Thread 0x000000001ae14800 Thread exited: 0x000000001ae14800
Event: 29.213 Thread 0x0000000020684000 Thread exited: 0x0000000020684000
Event: 29.213 Thread 0x000000001ae18800 Thread exited: 0x000000001ae18800
Event: 29.221 Thread 0x0000000020683800 Uncommon trap: trap_request=0xffffff86 fr.pc=0x000000000504d150
Event: 29.221 Thread 0x0000000020683800 DEOPT PACKING pc=0x000000000504d150 sp=0x000000002724dbf0
Event: 29.221 Thread 0x0000000020683800 DEOPT UNPACKING pc=0x0000000002fe557b sp=0x000000002724db28 mode 2
Event: 29.231 loading class com/android/build/gradle/internal/profile/TaskProfilingRecord$allWorkersFinished$1
Event: 29.231 loading class com/android/build/gradle/internal/profile/TaskProfilingRecord$allWorkersFinished$1 done


Dynamic libraries:
0x00007ff70b730000 - 0x00007ff70b761000 	C:\Program Files\Android\Android Studio\jre\bin\java.exe
0x00007ff851e20000 - 0x00007ff852010000 	C:\windows\SYSTEM32\ntdll.dll
0x00007ff8503b0000 - 0x00007ff850462000 	C:\windows\System32\KERNEL32.DLL
0x00007ff84ef20000 - 0x00007ff84f1c4000 	C:\windows\System32\KERNELBASE.dll
0x00007ff851380000 - 0x00007ff851423000 	C:\windows\System32\ADVAPI32.dll
0x00007ff851800000 - 0x00007ff85189e000 	C:\windows\System32\msvcrt.dll
0x00007ff8518c0000 - 0x00007ff851957000 	C:\windows\System32\sechost.dll
0x00007ff851ab0000 - 0x00007ff851bd0000 	C:\windows\System32\RPCRT4.dll
0x00007ff84fed0000 - 0x00007ff850065000 	C:\windows\System32\USER32.dll
0x00007ff84f4c0000 - 0x00007ff84f4e1000 	C:\windows\System32\win32u.dll
0x00007ff8514b0000 - 0x00007ff8514d6000 	C:\windows\System32\GDI32.dll
0x00007ff84f540000 - 0x00007ff84f6d6000 	C:\windows\System32\gdi32full.dll
0x00007ff84f1d0000 - 0x00007ff84f26e000 	C:\windows\System32\msvcp_win.dll
0x00007ff84eda0000 - 0x00007ff84ee9a000 	C:\windows\System32\ucrtbase.dll
0x00007ff833e30000 - 0x00007ff8340b4000 	C:\windows\WinSxS\amd64_microsoft.windows.common-controls_6595b64144ccf1df_6.0.18362.1016_none_9e7a36bbe461dae4\COMCTL32.dll
0x00007ff850070000 - 0x00007ff8503a5000 	C:\windows\System32\combase.dll
0x00007ff84eea0000 - 0x00007ff84ef20000 	C:\windows\System32\bcryptPrimitives.dll
0x00007ff850480000 - 0x00007ff8504ae000 	C:\windows\System32\IMM32.DLL
0x000000005edb0000 - 0x000000005ee82000 	C:\Program Files\Android\Android Studio\jre\jre\bin\msvcr100.dll
0x000000005f1e0000 - 0x000000005fa26000 	C:\Program Files\Android\Android Studio\jre\jre\bin\server\jvm.dll
0x00007ff8517f0000 - 0x00007ff8517f8000 	C:\windows\System32\PSAPI.DLL
0x00007ff84c9b0000 - 0x00007ff84c9ba000 	C:\windows\SYSTEM32\VERSION.dll
0x00007ff84c290000 - 0x00007ff84c2b4000 	C:\windows\SYSTEM32\WINMM.dll
0x00007ff84c7b0000 - 0x00007ff84c7b9000 	C:\windows\SYSTEM32\WSOCK32.dll
0x00007ff851440000 - 0x00007ff8514af000 	C:\windows\System32\WS2_32.dll
0x00007ff84c1d0000 - 0x00007ff84c1fd000 	C:\windows\SYSTEM32\WINMMBASE.dll
0x00007ff84f270000 - 0x00007ff84f2ba000 	C:\windows\System32\cfgmgr32.dll
0x00007ff84b0e0000 - 0x00007ff84b0ef000 	C:\Program Files\Android\Android Studio\jre\jre\bin\verify.dll
0x00007ff8465a0000 - 0x00007ff8465c9000 	C:\Program Files\Android\Android Studio\jre\jre\bin\java.dll
0x00007ff847bb0000 - 0x00007ff847bc6000 	C:\Program Files\Android\Android Studio\jre\jre\bin\zip.dll
0x00007ff850c90000 - 0x00007ff851377000 	C:\windows\System32\SHELL32.dll
0x00007ff850580000 - 0x00007ff850629000 	C:\windows\System32\shcore.dll
0x00007ff84f6e0000 - 0x00007ff84fe62000 	C:\windows\System32\windows.storage.dll
0x00007ff84ed70000 - 0x00007ff84ed93000 	C:\windows\System32\profapi.dll
0x00007ff84ece0000 - 0x00007ff84ed2a000 	C:\windows\System32\powrprof.dll
0x00007ff84ecd0000 - 0x00007ff84ece0000 	C:\windows\System32\UMPDC.dll
0x00007ff8504b0000 - 0x00007ff850502000 	C:\windows\System32\shlwapi.dll
0x00007ff84ed50000 - 0x00007ff84ed61000 	C:\windows\System32\kernel.appcore.dll
0x00007ff84f4f0000 - 0x00007ff84f507000 	C:\windows\System32\cryptsp.dll
0x00007ff847b70000 - 0x00007ff847b8a000 	C:\Program Files\Android\Android Studio\jre\jre\bin\net.dll
0x00007ff83ce30000 - 0x00007ff83d006000 	C:\windows\SYSTEM32\urlmon.dll
0x00007ff83b9d0000 - 0x00007ff83bc76000 	C:\windows\SYSTEM32\iertutil.dll
0x00007ff84e700000 - 0x00007ff84e70c000 	C:\windows\SYSTEM32\CRYPTBASE.DLL
0x00007ff84e520000 - 0x00007ff84e587000 	C:\windows\system32\mswsock.dll
0x00007ff849ab0000 - 0x00007ff849ac3000 	C:\Program Files\Android\Android Studio\jre\jre\bin\nio.dll
0x00007ff830f00000 - 0x00007ff830f26000 	C:\Users\damia\.gradle\native\30\windows-amd64\native-platform.dll
0x00007ff84ac40000 - 0x00007ff84ac4d000 	C:\Program Files\Android\Android Studio\jre\jre\bin\management.dll
0x00007ff84e040000 - 0x00007ff84e073000 	C:\windows\system32\rsaenh.dll
0x00007ff84f510000 - 0x00007ff84f536000 	C:\windows\System32\bcrypt.dll
0x00007ff84ebf0000 - 0x00007ff84ec15000 	C:\windows\SYSTEM32\USERENV.dll
0x00007ff84e1e0000 - 0x00007ff84e21a000 	C:\windows\SYSTEM32\IPHLPAPI.DLL
0x00007ff851430000 - 0x00007ff851438000 	C:\windows\System32\NSI.dll
0x00007ff843da0000 - 0x00007ff843db6000 	C:\windows\SYSTEM32\dhcpcsvc6.DLL
0x00007ff8463d0000 - 0x00007ff8463ec000 	C:\windows\SYSTEM32\dhcpcsvc.DLL
0x00007ff84e220000 - 0x00007ff84e2eb000 	C:\windows\SYSTEM32\DNSAPI.dll

VM Arguments:
jvm_args: -Xmx1536m -Dfile.encoding=windows-1252 -Duser.country=PL -Duser.language=pl -Duser.variant 
java_command: org.gradle.launcher.daemon.bootstrap.GradleDaemon 5.6.4
java_class_path (initial): C:\Users\damia\.gradle\wrapper\dists\gradle-5.6.4-all\ankdp27end7byghfw1q2sw75f\gradle-5.6.4\lib\gradle-launcher-5.6.4.jar
Launcher Type: SUN_STANDARD

Environment Variables:
PATH=C:\Program Files (x86)\Common Files\Oracle\Java\javapath;C:\Rtools\bin;C:\windows\system32;C:\windows;C:\windows\System32\Wbem;C:\windows\System32\WindowsPowerShell\v1.0\;C:\windows\System32\OpenSSH\;C:\Program Files\dotnet\;C:\Program Files\Microsoft SQL Server\130\Tools\Binn\;C:\Program Files\Microsoft SQL Server\Client SDK\ODBC\170\Tools\Binn\;C:\Program Files\Git\cmd;C:\Program Files\MATLAB\R2019b\bin;C:\Program Files (x86)\Microsoft SQL Server\150\DTS\Binn\;C:\Users\damia\AppData\Local\Programs\Python\Python38-32\Scripts\;C:\Users\damia\AppData\Local\Programs\Python\Python38-32\;C:\Users\damia\AppData\Local\Microsoft\WindowsApps;;C:\Program Files\JetBrains\PyCharm Community Edition 2019.3.1\bin;
USERNAME=damia
OS=Windows_NT
PROCESSOR_IDENTIFIER=Intel64 Family 6 Model 142 Stepping 12, GenuineIntel



---------------  S Y S T E M  ---------------

OS: Windows 10.0 , 64 bit Build 18362 (10.0.18362.959)

CPU:total 8 (initial active 8) (4 cores per cpu, 2 threads per core) family 6 model 142 stepping 12, cmov, cx8, fxsr, mmx, sse, sse2, sse3, ssse3, sse4.1, sse4.2, popcnt, avx, avx2, aes, clmul, erms, 3dnowpref, lzcnt, ht, tsc, tscinvbit, bmi1, bmi2, adx

Memory: 4k page, physical 8272180k(253376k free), swap 13392180k(6836k free)

vm_info: OpenJDK 64-Bit Server VM (25.212-b04) for windows-amd64 JRE (1.8.0_212-release-1586-b04), built by "builder" with MS VC++ 10.0 (VS2010)

time: Wed Aug 19 16:34:02 2020
timezone: Central European Daylight Time
elapsed time: 29 seconds (0d 0h 0m 29s)

